{
      "srmforeneno.core.cfg.dev":           "http://127.0.0.1:8080/foreNeno.cfg/cfg/srmforeneno/srmforeneno.core.cfg.json"
    , "srmforeneno.core.about.dev":         "http://127.0.0.1:8080/foreNeno.cfg/cfg/srmforeneno/srmforeneno.core.abouts.json"
    , "srmforeneno.core.cfg.beta":          "http://beta.foreneno.com/cfg/srmforeneno/srmforeneno.core.cfg.json"
    , "srmforeneno.core.about.beta":        "http://beta.foreneno.com/cfg/srmforeneno/srmforeneno.core.abouts.json"
    , "srmforeneno.core.cfg.prod":          "https://foreneno.com/cfg/srmforeneno/srmforeneno.core.cfg.json"
    , "srmforeneno.core.about.prod":        "https://foreneno.com/cfg/srmforeneno/srmforeneno.core.abouts.json"
}
