{
      "runnersno.default":                      "http://www.inoreader.com/stream/user/1005611799/tag/runnersno?dt=pub&n=100"
    , "runnersno.blogs.default":                "http://www.inoreader.com/stream/user/1005611799/tag/runnersno.blogs?dt=pub&n=100"
    , "runnersno.service.default":              "http://www.inoreader.com/stream/user/1005611799/tag/runnersno.service?dt=pub&n=100"
    , "runnersno.smks.default":                 "http://www.inoreader.com/stream/user/1005611799/tag/runnersno.smks?dt=pub&n=100"
    , "runnersno.mc_crosscountry.default":      "http://www.inoreader.com/stream/user/1005611799/tag/runnersno.mcat.crosscountry?dt=pub&n=100"
    , "runnersno.mc_cycling.default":           "http://www.inoreader.com/stream/user/1005611799/tag/runnersno.mcat.cycling?dt=pub&n=100"
    , "runnersno.mc_misc.default":              "http://www.inoreader.com/stream/user/1005611799/tag/runnersno.mcat.misc?dt=pub&n=100"
    , "runnersno.mc_multisport.default":        "http://www.inoreader.com/stream/user/1005611799/tag/runnersno.mcat.multisport?dt=pub&n=100"
    , "runnersno.mc_running.default":           "http://www.inoreader.com/stream/user/1005611799/tag/runnersno.mcat.running?dt=pub&n=100"
    , "runnersno.mc_triathlon.default":         "http://www.inoreader.com/stream/user/1005611799/tag/runnersno.mcat.triathlon?dt=pub&n=100"
}
