{"result_set": [

    {
        "runnersno": [
            {
                  "title":      "runners.no"
                , "ingress":    "visjon og m&aring;l"
                , "body":       "<strong>visjon</strong><p>runners.no skal v&aelig;re et nettsted som samler og presenterer innhold fra sportsbloggere.</p><strong>m&aring;lsetning for v&aring;re lesere</strong><p>vi &oslash;nsker &aring; tilby en oversiktelig tjeneste som presenterer innhold fra aktive sportsbloggere.</p><strong>m&aring;lsetning for v&aring;re kilder</strong><p>vi &oslash;nsker &aring; gi v&aring;re kilder et st&oslash;rre publikum for innholdet som presenteres.</p>"
            }
            ,
            {
                  "title":      "opphavsrett"
                , "ingress":    "publisering av innhold uten samtykke fra rettighetshaver"
                , "body":       "på runners.no vises korte utdrag av innlegg fra ulike kilder. forfatterene av inleggene eier innholdet, og er selv ansvarlige for det som de publiserer. det er <a target='_blank' href='https://no.wikipedia.org/wiki/Sitatrett'>sitatretten</a> som gir runners.no anledning til å hente og publisere innholdet på disse sidene uten å innhente samtykke fra rettighetshaver."
            }
            ,
            {
                  "title":      "ta kontakt"
                , "ingress":    "dersom du vil skrive noen ord"
                , "body":       "bruk f&oslash;lgende <a target='_blank' href='https://docs.google.com/a/vxg.com/forms/d/19iXLeX2JtjeGrtUq6ipla77vBU6WmB8t78ffxgXYbLM/viewform?embedded=true&formkey=dDB5VkhUOGNuYTU4R2NMcHJNYzdUSFE6MQ'>kontaktskjema</a>."
            }
            ,
            {
                  "title":      "registrer nytt innhold"
                , "ingress":    "er det noe som mangler? gi beskjed!"
                , "body":       "det er &oslash;nskelig &aring; ha med mest mulig relevant innhold p&aring; denne tjenesten. har du tips til innhold som burde v&aelig;re med <a target='_blank' href='https://docs.google.com/a/vxg.com/forms/d/19iXLeX2JtjeGrtUq6ipla77vBU6WmB8t78ffxgXYbLM/viewform?embedded=true&formkey=dDB5VkhUOGNuYTU4R2NMcHJNYzdUSFE6MQ'>skriv en melding her</a>."
            }
            ,
            {
                  "title":      "PIBCAK"
                , "ingress":    "the responsible one"
                , "body":       "<p>(the) person in between (the) chair and keyboard, aka. the PIBCAK, is <a target='_blank' href='http://thisworld.is'>frode burdal klevstul</a>.</p>"
            }
            ,
            {
                  "title":      "personvern"
                , "ingress":    "alle burde interessere seg for personvern"
                , "body":       "<p>les mer om personvern p&aring; <a target='_blank' href='http://foreneno.com/about'>foreNeno.com</a>.</p>"
            }
        ]
    }

]}
