{
      "atestservice.core.cfg.dev":           "http://127.0.0.1:8080/foreNeno.cfg/cfg/atestservice/atestservice.core.cfg.json"
    , "atestservice.core.about.dev":         "http://127.0.0.1:8080/foreNeno.cfg/cfg/atestservice/atestservice.core.abouts.json"
}
